<?xml version="1.0" encoding="utf-8"?>
<!-- Generator: Adobe Illustrator 23.0.0, SVG Export Plug-In . SVG Version: 6.00 Build 0)  -->
<svg version="1.1" id="Layer_1" xmlns="http://www.w3.org/2000/svg" xmlns:xlink="http://www.w3.org/1999/xlink" x="0px" y="0px"
	 viewBox="0 0 560 400" style="enable-background:new 0 0 560 400;" xml:space="preserve">
<style type="text/css">
	.st0{fill-rule:evenodd;clip-rule:evenodd;fill:#FFFFFF;}
	.st1{fill-rule:evenodd;clip-rule:evenodd;fill:#FEFEFE;}
</style>
<g>
	<path class="st0" d="M410.1,200c0-71.8-58.2-130-130-130s-130,58.2-130,130c0,64.9,47.6,118.7,109.7,128.5v-90.9h-33V200h33v-28.7
		c0-32.6,19.4-50.6,49.1-50.6c14.2,0,29.1,2.5,29.1,2.5v32h-16.4c-16.1,0-21.2,10-21.2,20.3V200h36.1l-5.8,37.6h-30.3v90.9
		C362.5,318.8,410.1,265,410.1,200L410.1,200z"/>
	<path class="st1" d="M330.7,237.6l5.8-37.6h-36.1v-24.4c0-10.3,5-20.3,21.2-20.3H338v-32c0,0-14.9-2.5-29.1-2.5
		c-29.7,0-49.1,18-49.1,50.6V200h-33v37.6h33v90.9c6.6,1,13.4,1.6,20.3,1.6s13.7-0.5,20.3-1.6v-90.9L330.7,237.6L330.7,237.6z"/>
</g>
</svg>
